%YAML 1.1
%TAG !u! tag:unity3d.com,2011:
--- !u!114 &11400000
MonoBehaviour:
  m_ObjectHideFlags: 0
  m_CorrespondingSourceObject: {fileID: 0}
  m_PrefabInstance: {fileID: 0}
  m_PrefabAsset: {fileID: 0}
  m_GameObject: {fileID: 0}
  m_Enabled: 1
  m_EditorHideFlags: 0
  m_Script: {fileID: 11500000, guid: 6d59fc68f46f4f8ca308a8d9cb8c1868, type: 3}
  m_Name: Spawn
  m_EditorClassIdentifier: 
  Type: 1
  AudioClips:
  - {fileID: 8300000, guid: cd88221d3d41cfd4dba8ac0621f38dd6, type: 3}
