%YAML 1.1
%TAG !u! tag:unity3d.com,2011:
--- !u!1045 &1
EditorBuildSettings:
  m_ObjectHideFlags: 0
  serializedVersion: 2
  m_Scenes:
  - enabled: 1
    path: Assets/Root/Scenes/Game.unity
    guid: 962732e590c243141b3567d20d4a0bbe
  m_configObjects: {}
