%YAML 1.1
%TAG !u! tag:unity3d.com,2011:
--- !u!114 &11400000
MonoBehaviour:
  m_ObjectHideFlags: 0
  m_CorrespondingSourceObject: {fileID: 0}
  m_PrefabInstance: {fileID: 0}
  m_PrefabAsset: {fileID: 0}
  m_GameObject: {fileID: 0}
  m_Enabled: 1
  m_EditorHideFlags: 0
  m_Script: {fileID: 11500000, guid: dd94759c726646dfa78aa87da4d54dc4, type: 3}
  m_Name: Diagonal Wave B
  m_EditorClassIdentifier: 
  EnemySpawns:
  - Enemy: {fileID: 5063101560698687872, guid: 473eba3cd4d2b864e9d73868f4cadf9c, type: 3}
    SpawnPosition: {x: 1, y: 1}
  - Enemy: {fileID: 5063101560698687872, guid: 473eba3cd4d2b864e9d73868f4cadf9c, type: 3}
    SpawnPosition: {x: -1, y: -1}
