%YAML 1.1
%TAG !u! tag:unity3d.com,2011:
--- !u!114 &11400000
MonoBehaviour:
  m_ObjectHideFlags: 0
  m_CorrespondingSourceObject: {fileID: 0}
  m_PrefabInstance: {fileID: 0}
  m_PrefabAsset: {fileID: 0}
  m_GameObject: {fileID: 0}
  m_Enabled: 1
  m_EditorHideFlags: 0
  m_Script: {fileID: 11500000, guid: 00b7716fa7a94054940223ac9d7aad12, type: 3}
  m_Name: New Character
  m_EditorClassIdentifier: 
  MoveSpeed: {fileID: 0}
  AttackSpeed: {fileID: 0}
  TurnSpeed: {fileID: 0}
